{
    "$schema": "https://raw.githubusercontent.com/F5Networks/f5-appsvcs-extension/master/schema/3.29.0/as3-schema.json",
    "class": "AS3",
    "action": "deploy",
    "persist": true,
    "declaration": {
        "class": "ADC",
        "schemaVersion": "3.18.0",
        "id": "5489436",
        "Common": {
            "class": "Tenant",
            "enable": true,
            "Shared": {
                "class": "Application",
                "template": "shared",
                "http_302": {
                    "class": "Monitor",
                    "monitorType": "http"
                },
                "dc7_CA_cer": {
                    "class": "Certificate",
                    "remark": "dc7.h.l",
                    "certificate": "-----BEGIN CERTIFICATE-----\nMIIDZTCCAk2gAwIBAgIQamqhyzpRcrlMpUa1w7D9FzANBgkqhkiG9w0BAQUFADA5\nMREwDwYKCZImiZPyLGQBGRYBbDERMA8GCgmSJomT8ixkARkWAWgxETAPBgNVBAMT\nCGgtREM3LUNBMB4XDTE0MTAxMTAwNTg1M1oXDTI0MTAxMTAxMDg1M1owOTERMA8G\nCgmSJomT8ixkARkWAWwxETAPBgoJkiaJk/IsZAEZFgFoMREwDwYDVQQDEwhoLURD\nNy1DQTCCASIwDQYJKoZIhvcNAQEBBQADggEPADCCAQoCggEBALTirnGWJukgP0iw\naR5SYdeI8263Ifgp2YLXVrQcyKvMglgw3fQ6ZY+LoWO4KXOL9wSMGaEJCez8JZnt\n4iT7gkWd+xGvzgBEBo5pNk2sZFX6B149bzlsyuzr0sc+2w0A+At3drtUyWhQPIxm\ngiChSwxfzcYJGd98vrmH1Cb1qQyqNaxOFBy3qiKnpNVcIt/JvT9urJ+7DbHh71we\nltrpK248GAboZAl6JJ9vDWGC6h/RgeGOledUl6UVGsf3jHTLZo1nsgG+g8iQ1tbf\n0cd1dYkJ/faCGFMy43mzJgcp+gXmasXcRmbhRLv0P8fW6YgzZx3A/wOE9PunoV2n\nAr5VNCcCAwEAAaNpMGcwEwYJKwYBBAGCNxQCBAYeBABDAEEwDgYDVR0PAQH/BAQD\nAgGGMA8GA1UdEwEB/wQFMAMBAf8wHQYDVR0OBBYEFI5XlO4uocbJWCoeeiSjlXFS\n3PMgMBAGCSsGAQQBgjcVAQQDAgEAMA0GCSqGSIb3DQEBBQUAA4IBAQAyEmGEh+y+\nBpAusNJ5/ojLyXRebDcNzRza7V9sQBujfHSdbFEwBHSPrTX7DE326zHrNuay47jg\nX8dJUniOL45RY4URi1Z86+wAK8nsQf0x+cIWDDtBq6O6LykJh9YXn/ZwBVrZjj8C\nyLIRKMbb0np92BMGlU0GXqXdFhm2cGzDHmQAyVchH/9xcWhv6ipfbmdndgqe8vEl\nx3IMkx1VZYnaQCQRZoSQ8lshtVCF+Eyx4fhZw8LLgn/sOZ2GcehP9sG68cCZqLSn\nhgPbprRW39XkpAMrrVN0qfJDSKKo0itIbFo5jLwV0JSvRup43Xe7Qq5LowMeSWg4\niD2jZ/pS824j\n-----END CERTIFICATE-----"
                },
                "c3d_signer_cer_key": {
                    "class": "Certificate",
                    "remark": "c3d_signer",
                    "certificate": "-----BEGIN CERTIFICATE-----\nMIICwDCCAagCCQCha9udzPXLoTANBgkqhkiG9w0BAQsFADAiMQswCQYDVQQGEwJV\nUzETMBEGA1UEAwwKYzNkIHNpZ25lcjAeFw0xOTEyMTExODQwNDRaFw0yOTEyMDgx\nODQwNDRaMCIxCzAJBgNVBAYTAlVTMRMwEQYDVQQDDApjM2Qgc2lnbmVyMIIBIjAN\nBgkqhkiG9w0BAQEFAAOCAQ8AMIIBCgKCAQEAqpAKZe43g7znbsA8/yVBRONzjXeu\nPOJ+7MeDNU3e/lZjiXzhDvbqbnrkK6q1xcxdeNuGNwY83Z6OCLWixdsXCCVhR7IZ\nXXqlA455+GBdZa7XlAzuqdxL5JdtDLSn/y+fj/TvoX4+ZDP87hvnaIBiO50xJLlo\n3+e2MNrr0hsLIjn1Chmz6Ecpm6y01bXmSnfW023UVTx1Crw9SFIPvzp2xKKKaF/l\n2mZXf1RAdZUGfTcKrM/L1q9LWaZruq8T8mnVofsYrEJfDZeJrU7DgEmhmT5VIzj8\n3+yLCwaF0MbuvLok67SyeB7XENT42qvUu+nw/AcSmd5xcS6rom+rKHlqvQIDAQAB\nMA0GCSqGSIb3DQEBCwUAA4IBAQBvF5M2s5Vbh694bUxKhURLFDwoAM3gw/iMFVtD\nA4+bBAQulyR2uJdXVO6CNCIW/Q19o1YjYOBrbTXEOdkLggNOwb++12/C2O3Rg2a0\nlnJb1j2g2nFrp1Vnm+Wmx0/oqjnbZbJLdMIEWAmcl0luD85m3WQeVnquU5XcrzRT\nTBcRpND5ihRbREr4HjaKex+DIIOjOtFpkmeVC4lZCSdeVeOAB3duZNqCVP1X8Gnh\nkyaZhBiD+ZH/AjsFwMwk/xPj+ELG107U2Zcxia6pEOQVq2+gvG/Hw4VWK4KOXa9O\nN8HVJvPPAcRQga3Ig7le6FUHxie8cCXo0kCDfPadXgdQLeRL\n-----END CERTIFICATE-----",
                    "privateKey": "-----BEGIN RSA PRIVATE KEY-----\nMIIEogIBAAKCAQEAqpAKZe43g7znbsA8/yVBRONzjXeuPOJ+7MeDNU3e/lZjiXzh\nDvbqbnrkK6q1xcxdeNuGNwY83Z6OCLWixdsXCCVhR7IZXXqlA455+GBdZa7XlAzu\nqdxL5JdtDLSn/y+fj/TvoX4+ZDP87hvnaIBiO50xJLlo3+e2MNrr0hsLIjn1Chmz\n6Ecpm6y01bXmSnfW023UVTx1Crw9SFIPvzp2xKKKaF/l2mZXf1RAdZUGfTcKrM/L\n1q9LWaZruq8T8mnVofsYrEJfDZeJrU7DgEmhmT5VIzj83+yLCwaF0MbuvLok67Sy\neB7XENT42qvUu+nw/AcSmd5xcS6rom+rKHlqvQIDAQABAoIBACIpM0vzCD9kaF3w\nNsdLaOUpQQ2GeOlM2+sEkqzsacs69jilQFZE8fMqveRZDosNQXNhVGJU53/jr8Li\nzjUeimBhTDiV3Sqx07cApEEw28Pv3tGSPYLb0n94LKkszbD4kta8UfpgVJKxLulp\nwVFW1VXnR955HB4sRHtIfY7ZR8OU0DsmeTjDw+8nq0IaCedjfteVzn08VFtetzTq\nrARFHwaKoLla30rDztvDEW7lZWYTP+8IBYZ+izDcVHeYA+XMX2hpkxdnLpPOQbGt\nCr+BKvypyHOYe2ILUmfz6mRzkwkjBYqoNJm6g78F71Qqura2ViiNHLS8kznCorA+\n3P/3CMECgYEA3cPrPEqTiGYFIaIE46cWt+WkUDUou88thcBNYyKBj/04UVqaN54i\n5O9GyhtDC8tsHABmchp8dyZ/HrXAQsEnlOsrC3lT/aLh2dMrsalelHcs4zAacOvq\np0xhou50/jf85kSXKv5lspDD1MyxXjPMElCvPTxOy46dwsm+O7vx2/UCgYEAxOSc\nxUEAu2dvR86FrIXc9k1NM2aBxNzKJtL9wHy29wMkBoBrmhN67BOViGneH8LTb4Gz\nQdBnEJf0rvdZZJoQavtd95H8HHkWPOauyGslC2GOSIlur6JGYFiExvK+E2BiTqbY\n5GPvkSR8XOyWbtu56wReyoZMSM8Qw6fxk6UWnqkCgYBErLJBJnsPh0BZjPnkoc64\nPiYnLH8jweHABLAyXfIva+Qv1VXimVcG/E44sj6N/X3KIhmXhjo7D7HYCcKzKWuf\ngz/+OqFW70TvlqR2TRPb+BfvdusJQxWUn2Ow+BVE0IPBr0X863EE3i22zXizymiM\n122dEfr4sH6MXrtJdkdMrQKBgC5/Yrp+qGKZgcEud4kPr+gGx2WNHrZUAfV7PGvZ\nyAe7mSVj7IVddlkMIvMtNUTA6NfbhG7VfZGAoUs0pMrKS3hIVp+hvS0oN2U4gSxZ\niU0Pw99DfX1C0GXuYaTuLI884tp6Mpx1MV1QhYIYaUpS36wtwwkHADrtk6LxJW7d\nvOLJAoGANwnu3GeWbdPeSKUd5DTVbmcz2XfRINHyAqxM3t6NzTQ0qF/8Dkj7flT8\nP4zZghVDCzCVQBZMjA4w4+ojXfQ9dP/JKLy6SPGPTD1AVZ1ar5CEQen1YQ5hwA8d\n0r38Yx0UYbWxIk1qWQ3peoNRNpQO79eDgqc4YXUYLlT8GXgfe+8=\n-----END RSA PRIVATE KEY-----"
                },
                "wildcard.abbagmbh.de.cer_key": {
                    "class": "Certificate",
                    "remark": "wildcard.abbagmbh.de",
                    "certificate": "-----BEGIN CERTIFICATE-----\nMIIDazCCAlOgAwIBAgICAIYwDQYJKoZIhvcNAQELBQAwOTERMA8GCgmSJomT8ixk\nARkWAWwxETAPBgoJkiaJk/IsZAEZFgFoMREwDwYDVQQDEwhoLURDNy1DQTAeFw0y\nMTExMDMwNTEzMTlaFw0yNDAxMTIwNTEzMTlaME8xCzAJBgNVBAYTAkFVMQwwCgYD\nVQQIDANWSUMxGjAYBgNVBAoMEWFiYmFnbWJoLmRlLCBJbmMuMRYwFAYDVQQDDA0q\nLmFiYmFnbWJoLmRlMIIBIjANBgkqhkiG9w0BAQEFAAOCAQ8AMIIBCgKCAQEA1pSc\nbUyvErKMySVRUnMb6MhutPlwxfkEy9v1ZqMIoJb0ZnNjnl2j1LqLx0FvLWEYaCCp\nZrQvkOmw+rOSTHIBjDYXQtc39AzP/G+syBkf1PmQ3eA1F/XXuPC7v9Bf6QUwMOB0\nZqho57fbt6Xpj/xo3POeon8+V2n1g75vzbmiS96+bQVMGQonw+FhSFjNbXJZg9mp\nL6sITfVEvj6SSJ8aMin/rbwKG2Eehkdzf1LerQBx7hU7MWaGsP290OjsPi8pDld5\nOBb7gKOnD1c6YfcqorVMvrsbE296fFf8zBV7WIbQoyTy2GDsyDZyflc4rBtNY1rB\niWa7v2Mv/yq3q7hqbQIDAQABo2cwZTAYBgNVHREEETAPgg0qLmFiYmFnbWJoLmRl\nMDEGA1UdJQQqMCgGCCsGAQUFBwMBBggrBgEFBQcDAgYIKwYBBQUHAwMGCCsGAQUF\nBwMEMAkGA1UdEwQCMAAwCwYDVR0PBAQDAgXgMA0GCSqGSIb3DQEBCwUAA4IBAQAj\nA4WbOHeZIIQ4UuCT4amwXLcpJPBKPpyDsL1+4hLcnkEJxq3lCAn7yivWNFiktwZu\nWtauz/SJ1h7nUmNQIQVSkGIWJhxN4p0Zu+Q9a3cW9apBAYNNkfndSKL8QiUtt5yx\nwrAWSW2UY99nR/aoA1HtE4dkUnjrf9WMzXYLv5WEQcRZUA3fsKSHaJg8vo/Aqq+r\naLAEqPaR6zDjQ9PFa9Qq2k4p9NB8jlZcE5Hdq0vMxyvV5OOpz+0ZKfNDuUx7pB8f\noJAw72Vem5PryXJWW8ar7Ngbna7e8RnUf6u2PypapoLPCNSTIErGVEs6Cc4vOHSB\n4V6wb4Klh3OztlswCNkm\n-----END CERTIFICATE-----\n",
                    "privateKey": "-----BEGIN RSA PRIVATE KEY-----\nMIIEpAIBAAKCAQEA1pScbUyvErKMySVRUnMb6MhutPlwxfkEy9v1ZqMIoJb0ZnNj\nnl2j1LqLx0FvLWEYaCCpZrQvkOmw+rOSTHIBjDYXQtc39AzP/G+syBkf1PmQ3eA1\nF/XXuPC7v9Bf6QUwMOB0Zqho57fbt6Xpj/xo3POeon8+V2n1g75vzbmiS96+bQVM\nGQonw+FhSFjNbXJZg9mpL6sITfVEvj6SSJ8aMin/rbwKG2Eehkdzf1LerQBx7hU7\nMWaGsP290OjsPi8pDld5OBb7gKOnD1c6YfcqorVMvrsbE296fFf8zBV7WIbQoyTy\n2GDsyDZyflc4rBtNY1rBiWa7v2Mv/yq3q7hqbQIDAQABAoIBAFjwqBW1nytEzo3g\n5eAizgKicSCZ82BbYt2Mgh7UnJLTfuGoGjZd4bYezCj+ujI4+IDQaOak8MJD2pNP\nMuh0qKeRE/skcZC6bsrXDuqxXzxLZPxSHi+cOpnxTiCnIdnXyK25mwWh8Dl7P5rT\nLgf8Owq5/5qi2xgoVxcQLA89TkPbgQ81QnjU3bkl7KsZj9GLjqgR3qZ+oNdoF07G\n9LpxnE4zcH12/ayEh2IIERJGzslU8PZpyxK7JqThuRQnOwjFItlihhhDn4J1VdGz\nUk1RBaMVuLzDl52xsPnA0upAV3/3h+rpy2+1gIgPIfqxkursU1oPghtQ+fAH2+0w\nEMJ/JwECgYEA6rQUcA6zOz0zbm4yPjkolY0t6MIh8BsUlQ3t7H5LqypsSIcQ6oWI\nGVvcDIn/FTB/TO1o1TMs5D3aHYY65W6JpGmKUeKXa8KUkhRlivmwQ6hjYmqsHl9R\nAuzgTWj2lqCLriaqWNeMV+ORwE9CshoPakHQYpre5tyJkvhlobHODT0CgYEA6g0Y\nptSNXzgMBerKqhcxJcDCYcRz4J0/68AqA02j2mSXUIgLaNXMd9DRrrYSrKWYwkfI\nF3ci0KDTDJ11mhfVqSX51FYyxmIlUg7zTl6OuY1OcusuuXCqtlTBo+X5SwZ5pZK9\n3lVp2/mRfTPVjntvdg0el/pzk5Xkxadlix09BPECgYBzgIO+Ub2qnYe+BMT9EiwC\nzSOWtFL3UpxibiR0igK7DXmUh8OvZl9/+1DjatX5m5BKT1uT8EdbW4UHmpNJbYiX\nPMkxWw2hnnR3H0qJhi9UXH3sZQqnN8kqY2BPOCSCJCgZYDXc2tbaOcf0mAz+kQyd\nAh6HKCgh/M5HYa7CUDpTEQKBgQDamvjXedfBg/vW2wIH9Dl3ZZ8o6fDBbp5xd77F\n7xKHvUSHd0oQ1QBxOJ1gbbbrgpA3hgwhvqjJ7Cyzr65UCscJgeripNAv8yOgjU47\neJ4eORl4xKmTkuQgAPIMP5SkupuMRo8IxwZk66k0I+HnfusQfBiDIu4ofux6oGt7\nkAeaQQKBgQCbxh8BUIAs+xnUWSENSnbddtRqk4JVTB82P6Q/pNdP6ARQXtydJWfq\no/1LYlN/pCR7RPmFzoH+cokG1HAvO9+BQZLD8WO6/T39wuYLcPjDBuz2T9GD6SKS\ndyo6xzzL4W92OiGcXY4ASJ9qTIZsKYyg3eXelsPeJmnKAn2BN+qDxQ==\n-----END RSA PRIVATE KEY-----\n"
                },
                "wildcard.abbagmbh.de_SSL_profile": {
                    "class": "TLS_Server",
                    "certificates": [
                        {
                            "certificate": "wildcard.abbagmbh.de.cer_key"
                        }
                    ]
                },
                "c3d_wildcard.abbagmbh.de_serverSSL_profile": {
                    "class": "TLS_Client",
                    "clientCertificate": "wildcard.abbagmbh.de.cer_key",
                    "c3dCertificateAuthority": "c3d_signer_cer_key",
                    "c3dEnabled": true
                },
                "c3d_wildcard.abbagmbh.de_SSL_profile": {
                    "class": "TLS_Server",
                    "certificates": [
                        {
                            "certificate": "c3d_signer_cer_key"
                        }
                    ],
                    "authenticationTrustCA": {
                        "bigip": "/Common/Shared/dc7_CA_cer.crt"
                    },
                    "authenticationMode": "request",
                    "c3dEnabled": true
                },
                "Security_Log_profile": {
                    "application": {
                        "localStorage": false,
                        "remoteStorage": "bigiq",
                        "protocol": "tcp",
                        "responseLogging": "all",
                        "servers": [
                            {
                                "address": "10.0.0.233",
                                "port": "8514"
                            }
                        ],
                        "storageFilter": {
                            "requestType": "all"
                        }
                    },
                    "class": "Security_Log_Profile"
                }
            }
        }
    }
}